pipelinedCPU/cpu_tb.vcd
$date
	Wed Jul 21 14:09:10 2021
$end
$version
	Icarus Verilog
$end
$timescale
	1ps
$end
$scope module cpu_tb $end
$var wire 32 ! idata [31:0] $end
$var wire 32 " iaddr [31:0] $end
$var wire 4 # dwe [3:0] $end
$var wire 32 $ dwdata [31:0] $end
$var wire 32 % drdata [31:0] $end
$var wire 32 & daddr [31:0] $end
$var reg 1 ' clk $end
$var reg 32 ( dtmp [31:0] $end
$var reg 32 ) exp_reg [31:0] $end
$var reg 1 * reset $end
$var integer 32 + exp_file [31:0] $end
$var integer 32 , fail [31:0] $end
$var integer 32 - i [31:0] $end
$var integer 32 . log_file [31:0] $end
$var integer 32 / s [31:0] $end
$scope module u1 $end
$var wire 1 ' clk $end
$var wire 1 * reset $end
$var wire 4 0 w_dwe [3:0] $end
$var wire 32 1 w_dwdata [31:0] $end
$var wire 32 2 w_daddr [31:0] $end
$var wire 3 3 sub_op [2:0] $end
$var wire 1 4 stall2 $end
$var wire 1 5 stall1 $end
$var wire 32 6 rvout [31:0] $end
$var wire 32 7 rv2 [31:0] $end
$var wire 32 8 rv1 [31:0] $end
$var wire 5 9 rs2 [4:0] $end
$var wire 5 : rs1 [4:0] $end
$var wire 5 ; rd [4:0] $end
$var wire 32 < r_rv2 [31:0] $end
$var wire 6 = op [5:0] $end
$var wire 1 > is_store $end
$var wire 1 ? is_load $end
$var wire 2 @ instr_type [1:0] $end
$var wire 32 A imm_val [31:0] $end
$var wire 32 B idata [31:0] $end
$var wire 32 C fwd_rv1 [31:0] $end
$var wire 32 D fwd_r_rv2 [31:0] $end
$var wire 32 E drdata [31:0] $end
$var wire 6 F alu_op [5:0] $end
$var wire 3 G XM_sub_op [2:0] $end
$var wire 1 H XM_rwe $end
$var wire 1 I XM_reset $end
$var wire 32 J XM_reg_wdata [31:0] $end
$var wire 5 K XM_rd [4:0] $end
$var wire 32 L XM_r_rv2 [31:0] $end
$var wire 1 M XM_nop $end
$var wire 1 N XM_is_store $end
$var wire 1 O XM_is_load $end
$var wire 32 P PC_next [31:0] $end
$var wire 1 Q MW_rwe $end
$var wire 1 R MW_reset $end
$var wire 32 S MW_reg_wdata [31:0] $end
$var wire 5 T MW_rd [4:0] $end
$var wire 1 U MEM_rwe_wire $end
$var wire 32 V MEM_rwdata_wire [31:0] $end
$var wire 1 W MEM_nop $end
$var wire 1 X IF_nop $end
$var wire 1 Y ID_nop $end
$var wire 1 Z FD_reset $end
$var wire 1 [ FD_nop $end
$var wire 32 \ FD_idata [31:0] $end
$var wire 32 ] FD_PC_curr [31:0] $end
$var wire 1 ^ EX_rwe_wire $end
$var wire 32 _ EX_rwdata_wire [31:0] $end
$var wire 1 ` EX_nop $end
$var wire 3 a DX_sub_op [2:0] $end
$var wire 32 b DX_rv2 [31:0] $end
$var wire 32 c DX_rv1 [31:0] $end
$var wire 1 d DX_reset $end
$var wire 5 e DX_rd [4:0] $end
$var wire 32 f DX_r_rv2 [31:0] $end
$var wire 6 g DX_op [5:0] $end
$var wire 1 h DX_nop $end
$var wire 1 i DX_is_store $end
$var wire 1 j DX_is_load $end
$var wire 2 k DX_instr_type [1:0] $end
$var wire 32 l DX_imm_val [31:0] $end
$var wire 32 m DX_PC_curr [31:0] $end
$var reg 32 n daddr [31:0] $end
$var reg 32 o dwdata [31:0] $end
$var reg 4 p dwe [3:0] $end
$var reg 32 q iaddr [31:0] $end
$scope module u_EX_MEM $end
$var wire 1 ' clk $end
$var wire 1 ` is_nop_in $end
$var wire 3 r sub_op_in [2:0] $end
$var wire 32 s rvout [31:0] $end
$var wire 1 d reset $end
$var wire 5 t rd_in [4:0] $end
$var wire 32 u r_rv2_in [31:0] $end
$var wire 6 v op [5:0] $end
$var wire 1 i is_store_in $end
$var wire 1 j is_load_in $end
$var wire 2 w instr_type_in [1:0] $end
$var wire 32 x imm_val_in [31:0] $end
$var wire 32 y PC_curr [31:0] $end
$var reg 32 z PC_next [31:0] $end
$var reg 6 { alu_op [5:0] $end
$var reg 32 | daddr_out [31:0] $end
$var reg 32 } daddr_wire [31:0] $end
$var reg 1 O is_load_out $end
$var reg 1 M is_nop_out $end
$var reg 1 N is_store_out $end
$var reg 32 ~ r_rv2_out [31:0] $end
$var reg 5 !" rd_out [4:0] $end
$var reg 32 "" reg_wdata_out [31:0] $end
$var reg 32 #" reg_wdata_wire [31:0] $end
$var reg 1 I reset_out $end
$var reg 1 H rwe_out $end
$var reg 1 ^ rwe_wire $end
$var reg 1 4 stall2 $end
$var reg 3 $" sub_op_out [2:0] $end
$upscope $end
$scope module u_ID_EX $end
$var wire 1 ' clk $end
$var wire 1 Y is_nop_in $end
$var wire 32 %" r_rv2_in [31:0] $end
$var wire 32 &" rv1_in [31:0] $end
$var wire 3 '" sub_op_in [2:0] $end
$var wire 32 (" rv2_in [31:0] $end
$var wire 1 Z reset $end
$var wire 5 )" rd_in [4:0] $end
$var wire 6 *" op_in [5:0] $end
$var wire 1 > is_store_in $end
$var wire 1 ? is_load_in $end
$var wire 2 +" instr_type_in [1:0] $end
$var wire 32 ," imm_val_in [31:0] $end
$var wire 32 -" PC_curr_in [31:0] $end
$var reg 32 ." PC_curr_out [31:0] $end
$var reg 32 /" imm_val_out [31:0] $end
$var reg 2 0" instr_type_out [1:0] $end
$var reg 1 j is_load_out $end
$var reg 1 h is_nop_out $end
$var reg 1 i is_store_out $end
$var reg 6 1" op_out [5:0] $end
$var reg 32 2" r_rv2_out [31:0] $end
$var reg 5 3" rd_out [4:0] $end
$var reg 1 d reset_out $end
$var reg 32 4" rv1_out [31:0] $end
$var reg 32 5" rv2_out [31:0] $end
$var reg 3 6" sub_op_out [2:0] $end
$upscope $end
$scope module u_IF_ID $end
$var wire 32 7" PC_curr_in [31:0] $end
$var wire 1 ' clk $end
$var wire 1 X is_nop_in $end
$var wire 1 * reset $end
$var wire 1 5 stall $end
$var wire 32 8" idata_in [31:0] $end
$var reg 32 9" PC_curr_out [31:0] $end
$var reg 32 :" idata_out [31:0] $end
$var reg 1 [ is_nop_out $end
$var reg 1 Z reset_out $end
$upscope $end
$scope module u_MEM_WB $end
$var wire 1 ' clk $end
$var wire 2 ;" daddr_LSBits [1:0] $end
$var wire 1 O is_load_in $end
$var wire 1 W is_nop_in $end
$var wire 1 N is_store_in $end
$var wire 32 <" r_rv2_in [31:0] $end
$var wire 5 =" rd_in [4:0] $end
$var wire 32 >" reg_wdata_in [31:0] $end
$var wire 1 I reset $end
$var wire 1 H rwe_in $end
$var wire 3 ?" sub_op_in [2:0] $end
$var wire 32 @" drdata [31:0] $end
$var reg 32 A" dwdata [31:0] $end
$var reg 4 B" dwe [3:0] $end
$var reg 5 C" rd_out [4:0] $end
$var reg 32 D" reg_wdata_out [31:0] $end
$var reg 32 E" reg_wdata_wire [31:0] $end
$var reg 1 R reset_out $end
$var reg 1 Q rwe_out $end
$var reg 1 U rwe_wire $end
$upscope $end
$scope module u_alu $end
$var wire 6 F" op [5:0] $end
$var wire 32 G" rv1 [31:0] $end
$var wire 32 H" rv2 [31:0] $end
$var wire 32 I" rvout [31:0] $end
$var reg 32 J" val_out [31:0] $end
$upscope $end
$scope module u_dec $end
$var wire 32 K" instr [31:0] $end
$var wire 32 L" r_rv2 [31:0] $end
$var reg 3 M" funct3 [2:0] $end
$var reg 7 N" funct7 [6:0] $end
$var reg 32 O" imm_val [31:0] $end
$var reg 7 P" instr_opcode [6:0] $end
$var reg 6 Q" op [5:0] $end
$var reg 5 R" rd [4:0] $end
$var reg 5 S" rs1 [4:0] $end
$var reg 5 T" rs2 [4:0] $end
$var reg 32 U" rv2 [31:0] $end
$upscope $end
$scope module u_pipe_control $end
$var wire 6 V" op [5:0] $end
$var reg 2 W" instr_type [1:0] $end
$var reg 1 ? is_load $end
$var reg 1 > is_store $end
$var reg 3 X" sub_op [2:0] $end
$upscope $end
$scope module u_reg $end
$var wire 1 ' clk $end
$var wire 5 Y" rd [4:0] $end
$var wire 5 Z" rs1 [4:0] $end
$var wire 5 [" rs2 [4:0] $end
$var wire 32 \" wdata [31:0] $end
$var wire 1 ]" we $end
$var wire 32 ^" rv2 [31:0] $end
$var wire 32 _" rv1 [31:0] $end
$upscope $end
$upscope $end
$scope module u2 $end
$var wire 32 `" iaddr [31:0] $end
$var wire 32 a" idata [31:0] $end
$upscope $end
$scope module u3 $end
$var wire 1 ' clk $end
$var wire 32 b" daddr [31:0] $end
$var wire 32 c" dwdata [31:0] $end
$var wire 4 d" dwe [3:0] $end
$var wire 32 e" drdata [31:0] $end
$var wire 30 f" a [29:0] $end
$upscope $end
$upscope $end
$enddefinitions $end
#0
$dumpvars
bx f"
bx e"
b0 d"
b0 c"
bx b"
b100000000111110010011 a"
b0 `"
b0 _"
b0 ^"
x]"
bx \"
b0 ["
b0 Z"
bx Y"
b0 X"
b11 W"
b0 V"
bx U"
b0 T"
b0 S"
b0 R"
b0 Q"
b0 P"
bx O"
b0 N"
b0 M"
bx L"
b0 K"
bx J"
bx I"
bx H"
bx G"
bx F"
bx E"
bx D"
bx C"
b0 B"
b0 A"
bx @"
bx ?"
bx >"
bx ="
bx <"
bx ;"
b0 :"
b0 9"
b100000000111110010011 8"
b0 7"
bx 6"
bx 5"
bx 4"
bx 3"
bx 2"
bx 1"
bx 0"
bx /"
bx ."
b0 -"
bx ,"
b11 +"
b0 *"
b0 )"
bx ("
b0 '"
bx &"
bx %"
bx $"
bx #"
bx ""
bx !"
bx ~
bx }
bx |
bx {
bx z
bx y
bx x
bx w
bx v
bx u
bx t
bx s
bx r
b0 q
b0 p
b0 o
bx n
bx m
bx l
bx k
xj
xi
xh
bx g
bx f
bx e
xd
bx c
bx b
bx a
x`
bx _
x^
b0 ]
b0 \
z[
1Z
xY
xX
xW
bx V
xU
bx T
bx S
xR
xQ
bx P
xO
xN
xM
bx L
bx K
bx J
xI
xH
bx G
bx F
bx E
bx D
bx C
b100000000111110010011 B
bx A
b11 @
0?
0>
b0 =
b0 <
b0 ;
b0 :
b0 9
b0 8
bx 7
bx 6
x5
x4
b0 3
bx 2
b0 1
b0 0
bx /
bx .
bx -
bx ,
bx +
1*
bx )
bx (
1'
bx &
bx %
b0 $
b0 #
b0 "
b100000000111110010011 !
$end
#5000
0'
#10000
0Y
05
0X
b0 %
b0 E
b0 @"
b0 e"
b0 f"
04
b100 P
b100 z
b0 F
b0 {
b0 F"
b0 }
1^
bx _
bx #"
0`
b0 &
b0 n
b0 b"
0i
0j
b0 l
b0 x
b0 /"
b0 f
b0 u
b0 2"
b0 b
b0 5"
b0 H"
b0 c
b0 4"
b0 G"
b0 e
b0 t
b0 3"
b0 a
b0 r
b0 6"
b0 k
b0 w
b0 0"
b0 g
b0 v
b0 1"
b0 m
b0 y
b0 ."
1d
x[
1'
#15000
0'
#20000
b0 D
b0 %"
b0 L"
b0 C
b0 &"
0U
b0 V
b0 E"
b0 ;"
0W
0[
0h
0N
0O
0H
b0 L
b0 ~
b0 <"
b0 K
b0 !"
b0 ="
b0 J
b0 ""
b0 >"
b0 G
b0 $"
b0 ?"
b0 2
b0 |
0M
1I
1'
#25000
0'
#30000
0]"
0Q
b0 T
b0 C"
b0 Y"
b0 S
b0 D"
b0 \"
1R
1'
#35000
0'
#40000
1'
#45000
0'
#50000
1'
#55000
0'
#60000
1'
#65000
0'
#70000
1'
#75000
0'
#80000
1'
#85000
0'
#90000
1'
#95000
0'
#100000
b0 @
b0 +"
b0 W"
b1 7
b1 ("
b1 U"
b1000 =
b1000 *"
b1000 Q"
b1000 V"
b10011 P"
b11111 ;
b11111 )"
b11111 R"
b1 9
b1 T"
b1 ["
b10000000000000100010011 !
b10000000000000100010011 B
b10000000000000100010011 8"
b10000000000000100010011 a"
b100000000111110010011 \
b100000000111110010011 :"
b100000000111110010011 K"
0Z
b100 "
b100 q
b100 7"
b100 `"
b0 -
1'
b10000000000000000000000000000100 +
b10000000000000000000000000000011 .
0*
#105000
0'
#110000
b1100010100000010010011 !
b1100010100000010010011 B
b1100010100000010010011 8"
b1100010100000010010011 a"
b1 6
b1 s
b1 I"
b1 J"
b1000 F
b1000 {
b1000 F"
1^
b1 _
b1 #"
b100 7
b100 ("
b100 U"
b10 ;
b10 )"
b10 R"
b100 9
b100 T"
b100 ["
b1000 "
b1000 q
b1000 7"
b1000 `"
bx l
bx x
bx /"
b1 b
b1 5"
b1 H"
b11111 e
b11111 t
b11111 3"
b1000 g
b1000 v
b1000 1"
0d
b10000000000000100010011 \
b10000000000000100010011 :"
b10000000000000100010011 K"
b100 ]
b100 -"
b100 9"
b1 -
1'
#115000
0'
#120000
b100 C
b100 &"
b11 7
b11 ("
b11 U"
b1100 =
b1100 *"
b1100 Q"
b1100 V"
b100 M"
b1 ;
b1 )"
b1 R"
b11 9
b11 T"
b11 ["
b10 :
b10 S"
b10 Z"
b100 6
b100 s
b100 I"
b100 J"
b1000 P
b1000 z
b1000 F
b1000 {
b1000 F"
1^
b100 _
b100 #"
1U
b1 V
b1 E"
b10001000001000001001100011 !
b10001000001000001001100011 B
b10001000001000001001100011 8"
b10001000001000001001100011 a"
b1100010100000010010011 \
b1100010100000010010011 :"
b1100010100000010010011 K"
b1000 ]
b1000 -"
b1000 9"
b100 b
b100 5"
b100 H"
b10 e
b10 t
b10 3"
b100 m
b100 y
b100 ."
1H
b11111 K
b11111 !"
b11111 ="
b1 J
b1 ""
b1 >"
0I
b1100 "
b1100 q
b1100 7"
b1100 `"
b10 -
1'
#125000
0'
#130000
b100 D
b100 %"
b100 L"
b111 C
b111 &"
b10 @
b10 +"
b10 W"
b100010100100001100011 !
b100010100100001100011 B
b100010100100001100011 8"
b100010100100001100011 a"
1]"
b100 V
b100 E"
b111 6
b111 s
b111 I"
b111 J"
b1100 P
b1100 z
b1100 F
b1100 {
b1100 F"
1^
b111 _
b111 #"
b100100 A
b100100 ,"
b100100 O"
b100 7
b100 ("
b100 U"
b100000 =
b100000 *"
b100000 Q"
b100000 V"
b1 N"
b0 M"
b1100011 P"
b100 ;
b100 )"
b100 R"
b10 9
b10 T"
b10 ["
b1 :
b1 S"
b1 Z"
b10000 "
b10000 q
b10000 7"
b10000 `"
1Q
b11111 T
b11111 C"
b11111 Y"
b1 S
b1 D"
b1 \"
0R
b10 K
b10 !"
b10 ="
b100 J
b100 ""
b100 >"
b11 b
b11 5"
b11 H"
b100 c
b100 4"
b100 G"
b1 e
b1 t
b1 3"
b1100 g
b1100 v
b1100 1"
b1000 m
b1000 y
b1000 ."
b10001000001000001001100011 \
b10001000001000001001100011 :"
b10001000001000001001100011 K"
b1100 ]
b1100 -"
b1100 9"
b11 -
1'
#135000
0'
#140000
b100 8
b100 _"
b100 C
b100 &"
b111 7
b111 ("
b111 U"
b111 D
b111 %"
b111 L"
b0 <
b0 ^"
b100 3
b100 '"
b100 X"
b10000 A
b10000 ,"
b10000 O"
b100100 =
b100100 *"
b100100 Q"
b100100 V"
b0 N"
b100 M"
b10000 ;
b10000 )"
b10000 R"
b1 9
b1 T"
b1 ["
b10 :
b10 S"
b10 Z"
b11 6
b11 s
b11 I"
b11 J"
b10000 P
b10000 z
b111000 F
b111000 {
b111000 F"
0^
b0 _
b0 #"
b111 V
b111 E"
b1000000001000001000000110110011 !
b1000000001000001000000110110011 B
b1000000001000001000000110110011 8"
b1000000001000001000000110110011 a"
b100010100100001100011 \
b100010100100001100011 :"
b100010100100001100011 K"
b10000 ]
b10000 -"
b10000 9"
b100100 l
b100100 x
b100100 /"
b100 f
b100 u
b100 2"
b100 b
b100 5"
b100 H"
b111 c
b111 4"
b111 G"
b100 e
b100 t
b100 3"
b10 k
b10 w
b10 0"
b100000 g
b100000 v
b100000 1"
b1100 m
b1100 y
b1100 ."
b1 K
b1 !"
b1 ="
b111 J
b111 ""
b111 >"
b10 T
b10 C"
b10 Y"
b100 S
b100 D"
b100 \"
b10100 "
b10100 q
b10100 7"
b10100 `"
b100 -
1'
#145000
0'
#150000
b111 C
b111 &"
b100 7
b100 ("
b100 U"
1Y
b100 D
b100 %"
b100 L"
1X
b100 <
b100 ^"
b111 8
b111 _"
b0 @
b0 +"
b0 W"
b0 3
b0 '"
b0 X"
b1100001111000010110011 !
b1100001111000010110011 B
b1100001111000010110011 8"
b1100001111000010110011 a"
0U
b0 V
b0 E"
b1 6
b1 s
b1 I"
b1 J"
14
b100000 P
b100000 z
b101010 F
b101010 {
b101010 F"
b111000 =
b111000 *"
b111000 Q"
b111000 V"
b100000 N"
b0 M"
b110011 P"
b11 ;
b11 )"
b11 R"
b10 9
b10 T"
b10 ["
b1 :
b1 S"
b1 Z"
b11000 "
b11000 q
b11000 7"
b11000 `"
b1 T
b1 C"
b1 Y"
b111 S
b111 D"
b111 \"
0H
b100 L
b100 ~
b100 <"
b100 K
b100 !"
b100 ="
b0 J
b0 ""
b0 >"
b10000 l
b10000 x
b10000 /"
b111 f
b111 u
b111 2"
b111 b
b111 5"
b111 H"
b100 c
b100 4"
b100 G"
b10000 e
b10000 t
b10000 3"
b100 a
b100 r
b100 6"
b100100 g
b100100 v
b100100 1"
b10000 m
b10000 y
b10000 ."
b1000000001000001000000110110011 \
b1000000001000001000000110110011 :"
b1000000001000001000000110110011 K"
b10100 ]
b10100 -"
b10100 9"
b101 -
1'
#155000
0'
#160000
b0 7
b0 ("
b0 U"
b0 D
b0 %"
b0 L"
0X
b111 C
b111 &"
b0 <
b0 ^"
bx 6
bx s
bx I"
bx J"
04
b10100 P
b10100 z
b0 F
b0 {
b0 F"
b111 8
b111 _"
b101111 =
b101111 *"
b101111 Q"
b101111 V"
b0 N"
b111 M"
b1 ;
b1 )"
b1 R"
b11 9
b11 T"
b11 ["
1`
0]"
b110110011 !
b110110011 B
b110110011 8"
b110110011 a"
b1100001111000010110011 \
b1100001111000010110011 :"
b1100001111000010110011 K"
b11000 ]
b11000 -"
b11000 9"
1[
b0 e
b0 t
b0 3"
1h
b111 L
b111 ~
b111 <"
b10000 K
b10000 !"
b10000 ="
b100 G
b100 $"
b100 ?"
0Q
b100 T
b100 C"
b100 Y"
b0 S
b0 D"
b0 \"
b100000 "
b100000 q
b100000 7"
b100000 `"
b110 -
1'
#165000
0'
#170000
b0 C
b0 &"
0Y
b0 8
b0 _"
b100010000000000110011 !
b100010000000000110011 B
b100010000000000110011 8"
b100010000000000110011 a"
1W
b101000 =
b101000 *"
b101000 Q"
b101000 V"
b0 M"
b11 ;
b11 )"
b11 R"
b0 9
b0 T"
b0 ["
b0 :
b0 S"
b0 Z"
b100100 "
b100100 q
b100100 7"
b100100 `"
b10000 T
b10000 C"
b10000 Y"
b0 K
b0 !"
b0 ="
1M
b110110011 \
b110110011 :"
b110110011 K"
b100000 ]
b100000 -"
b100000 9"
0[
b111 -
1'
#175000
0'
#180000
b111 7
b111 ("
b111 U"
b111 D
b111 %"
b111 L"
b100 C
b100 &"
b111 <
b111 ^"
b100 8
b100 _"
b0 ;
b0 )"
b0 R"
b1 9
b1 T"
b1 ["
b10 :
b10 S"
b10 Z"
b0 6
b0 s
b0 I"
b0 J"
1^
b0 _
b0 #"
b101000 F
b101000 {
b101000 F"
b100100 P
b100100 z
0`
b1100000001010001100011 !
b1100000001010001100011 B
b1100000001010001100011 8"
b1100000001010001100011 a"
b100010000000000110011 \
b100010000000000110011 :"
b100010000000000110011 K"
b100100 ]
b100100 -"
b100100 9"
b0 f
b0 u
b0 2"
b0 b
b0 5"
b0 H"
b0 c
b0 4"
b0 G"
b11 e
b11 t
b11 3"
b0 a
b0 r
b0 6"
b0 k
b0 w
b0 0"
b101000 g
b101000 v
b101000 1"
b100000 m
b100000 y
b100000 ."
0h
b0 T
b0 C"
b0 Y"
b101000 "
b101000 q
b101000 7"
b101000 `"
b1000 -
1'
#185000
0'
#190000
b0 7
b0 ("
b0 U"
b0 D
b0 %"
b0 L"
b0 C
b0 &"
b0 <
b0 ^"
b1011 _
b1011 #"
b1 3
b1 '"
b1 X"
b10 @
b10 +"
b10 W"
b0 8
b0 _"
b11101010001100011 !
b11101010001100011 B
b11101010001100011 8"
b11101010001100011 a"
1U
0W
b1011 6
b1011 s
b1011 I"
b1011 J"
b101000 P
b101000 z
b101000 F
b101000 {
b101000 F"
1^
b1000 A
b1000 ,"
b1000 O"
b100001 =
b100001 *"
b100001 Q"
b100001 V"
b1 M"
b1100011 P"
b1000 ;
b1000 )"
b1000 R"
b11 9
b11 T"
b11 ["
b0 :
b0 S"
b0 Z"
b101100 "
b101100 q
b101100 7"
b101100 `"
1H
b0 L
b0 ~
b0 <"
b11 K
b11 !"
b11 ="
b0 G
b0 $"
b0 ?"
0M
b111 f
b111 u
b111 2"
b111 b
b111 5"
b111 H"
b100 c
b100 4"
b100 G"
b0 e
b0 t
b0 3"
b100100 m
b100100 y
b100100 ."
b1100000001010001100011 \
b1100000001010001100011 :"
b1100000001010001100011 K"
b101000 ]
b101000 -"
b101000 9"
b1001 -
1'
#195000
0'
#200000
0Y
0X
b101 3
b101 '"
b101 X"
b100101 =
b100101 *"
b100101 Q"
b100101 V"
b101 M"
b0 9
b0 T"
b0 ["
b11 :
b11 S"
b11 Z"
b0 6
b0 s
b0 I"
b0 J"
04
b101100 P
b101100 z
b111000 F
b111000 {
b111000 F"
0^
b0 _
b0 #"
b1011 V
b1011 E"
1]"
b111110110011 !
b111110110011 B
b111110110011 8"
b111110110011 a"
b11101010001100011 \
b11101010001100011 :"
b11101010001100011 K"
b101100 ]
b101100 -"
b101100 9"
b1000 l
b1000 x
b1000 /"
b0 f
b0 u
b0 2"
b0 b
b0 5"
b0 H"
b0 c
b0 4"
b0 G"
b1000 e
b1000 t
b1000 3"
b1 a
b1 r
b1 6"
b10 k
b10 w
b10 0"
b100001 g
b100001 v
b100001 1"
b101000 m
b101000 y
b101000 ."
b111 L
b111 ~
b111 <"
b0 K
b0 !"
b0 ="
b1011 J
b1011 ""
b1011 >"
1Q
b11 T
b11 C"
b11 Y"
b110000 "
b110000 q
b110000 7"
b110000 `"
b1010 -
1'
#205000
0'
#210000
1Y
1X
b0 @
b0 +"
b0 W"
b0 3
b0 '"
b0 X"
b0 !
b0 B
b0 8"
b0 a"
0U
b0 V
b0 E"
14
b110100 P
b110100 z
b101010 F
b101010 {
b101010 F"
b101000 =
b101000 *"
b101000 Q"
b101000 V"
b0 M"
b110011 P"
b11111 ;
b11111 )"
b11111 R"
b0 :
b0 S"
b0 Z"
b110100 "
b110100 q
b110100 7"
b110100 `"
b0 T
b0 C"
b0 Y"
b1011 S
b1011 D"
b1011 \"
0H
b0 L
b0 ~
b0 <"
b1000 K
b1000 !"
b1000 ="
b0 J
b0 ""
b0 >"
b1 G
b1 $"
b1 ?"
b101 a
b101 r
b101 6"
b100101 g
b100101 v
b100101 1"
b101100 m
b101100 y
b101100 ."
b111110110011 \
b111110110011 :"
b111110110011 K"
b110000 ]
b110000 -"
b110000 9"
b1011 -
1'
#215000
0'
#220000
0X
bx 6
bx s
bx I"
bx J"
b11 @
b11 +"
b11 W"
04
b110000 P
b110000 z
b0 F
b0 {
b0 F"
b0 =
b0 *"
b0 Q"
b0 V"
b0 P"
b0 ;
b0 )"
b0 R"
1`
0]"
b0 \
b0 :"
b0 K"
b110100 ]
b110100 -"
b110100 9"
1[
b0 e
b0 t
b0 3"
1h
b101 G
b101 $"
b101 ?"
0Q
b1000 T
b1000 C"
b1000 Y"
b0 S
b0 D"
b0 \"
b1100 -
1'
#225000
0'
#230000
0Y
1W
b111000 "
b111000 q
b111000 7"
b111000 `"
b0 K
b0 !"
b0 ="
1M
0[
b1101 -
1'
#235000
0'
#240000
1^
b111000 P
b111000 z
0`
b111000 ]
b111000 -"
b111000 9"
b0 a
b0 r
b0 6"
b11 k
b11 w
b11 0"
b0 g
b0 v
b0 1"
b110100 m
b110100 y
b110100 ."
0h
b0 T
b0 C"
b0 Y"
b111100 "
b111100 q
b111100 7"
b111100 `"
b1110 -
1'
#245000
0'
#250000
1U
0W
b111100 P
b111100 z
1^
b1000000 "
b1000000 q
b1000000 7"
b1000000 `"
1H
b0 G
b0 $"
b0 ?"
0M
b111000 m
b111000 y
b111000 ."
b111100 ]
b111100 -"
b111100 9"
b1111 -
1'
#255000
0'
#260000
b1000000 P
b1000000 z
1^
1]"
b1000000 ]
b1000000 -"
b1000000 9"
b111100 m
b111100 y
b111100 ."
1Q
b1000100 "
b1000100 q
b1000100 7"
b1000100 `"
b10000 -
1'
#265000
0'
#270000
b1000100 P
b1000100 z
1^
b1001000 "
b1001000 q
b1001000 7"
b1001000 `"
b1000000 m
b1000000 y
b1000000 ."
b1000100 ]
b1000100 -"
b1000100 9"
b10001 -
1'
#275000
0'
#280000
b1001000 P
b1001000 z
1^
b1001000 ]
b1001000 -"
b1001000 9"
b1000100 m
b1000100 y
b1000100 ."
b1001100 "
b1001100 q
b1001100 7"
b1001100 `"
b10010 -
1'
#285000
0'
#290000
b1001100 P
b1001100 z
1^
b1010000 "
b1010000 q
b1010000 7"
b1010000 `"
b1001000 m
b1001000 y
b1001000 ."
b1001100 ]
b1001100 -"
b1001100 9"
b10011 -
1'
#295000
0'
#300000
b1010000 P
b1010000 z
1^
b1010000 ]
b1010000 -"
b1010000 9"
b1001100 m
b1001100 y
b1001100 ."
b1010100 "
b1010100 q
b1010100 7"
b1010100 `"
b10100 -
1'
#305000
0'
#310000
b1010100 P
b1010100 z
1^
b1011000 "
b1011000 q
b1011000 7"
b1011000 `"
b1010000 m
b1010000 y
b1010000 ."
b1010100 ]
b1010100 -"
b1010100 9"
b10101 -
1'
#315000
0'
#320000
b1011000 P
b1011000 z
1^
b1011000 ]
b1011000 -"
b1011000 9"
b1010100 m
b1010100 y
b1010100 ."
b1011100 "
b1011100 q
b1011100 7"
b1011100 `"
b10110 -
1'
#325000
0'
#330000
b10000000100011 !
b10000000100011 B
b10000000100011 8"
b10000000100011 a"
b1011100 P
b1011100 z
1^
b1100000 "
b1100000 q
b1100000 7"
b1100000 `"
b1011000 m
b1011000 y
b1011000 ."
b1011100 ]
b1011100 -"
b1011100 9"
b10111 -
1'
#335000
0'
#340000
1>
b111 3
b111 '"
b111 X"
b1 @
b1 +"
b1 W"
b110010 =
b110010 *"
b110010 Q"
b110010 V"
b10 M"
b100011 P"
b1100000 P
b1100000 z
1^
b100000010001000100011 !
b100000010001000100011 B
b100000010001000100011 8"
b100000010001000100011 a"
b10000000100011 \
b10000000100011 :"
b10000000100011 K"
b1100000 ]
b1100000 -"
b1100000 9"
b1011100 m
b1011100 y
b1011100 ."
b1100100 "
b1100100 q
b1100100 7"
b1100100 `"
b11000 -
1'
#345000
0'
#350000
b111 D
b111 %"
b111 L"
b111 <
b111 ^"
b0 6
b0 s
b0 I"
b0 J"
b1000000010010000100011 !
b1000000010010000100011 B
b1000000010010000100011 8"
b1000000010010000100011 a"
b0 }
b1000 F
b1000 {
b1000 F"
b1100100 P
b1100100 z
0^
b100 7
b100 ("
b100 U"
b100 ;
b100 )"
b100 R"
b1 9
b1 T"
b1 ["
b1101000 "
b1101000 q
b1101000 7"
b1101000 `"
1i
b111 a
b111 r
b111 6"
b1 k
b1 w
b1 0"
b110010 g
b110010 v
b110010 1"
b1100000 m
b1100000 y
b1100000 ."
b100000010001000100011 \
b100000010001000100011 :"
b100000010001000100011 K"
b1100100 ]
b1100100 -"
b1100100 9"
b11001 -
1'
#355000
0'
#360000
b100 D
b100 %"
b100 L"
b100 <
b100 ^"
b100 }
b1111 #
b1111 p
b1111 d"
b1000 7
b1000 ("
b1000 U"
b1000 ;
b1000 )"
b1000 R"
b10 9
b10 T"
b10 ["
b100 6
b100 s
b100 I"
b100 J"
b1101000 P
b1101000 z
b1000 F
b1000 {
b1000 F"
b1111 0
b1111 B"
0U
b1100000010011000100011 !
b1100000010011000100011 B
b1100000010011000100011 8"
b1100000010011000100011 a"
b1000000010010000100011 \
b1000000010010000100011 :"
b1000000010010000100011 K"
b1101000 ]
b1101000 -"
b1101000 9"
b111 f
b111 u
b111 2"
b100 b
b100 5"
b100 H"
b100 e
b100 t
b100 3"
b1100100 m
b1100100 y
b1100100 ."
1N
0H
b111 G
b111 $"
b111 ?"
b1101100 "
b1101100 q
b1101100 7"
b1101100 `"
b11010 -
1'
#365000
0'
#370000
b0 D
b0 %"
b0 L"
b0 <
b0 ^"
b111 $
b111 o
b111 c"
b1 f"
b10000000010100000100011 !
b10000000010100000100011 B
b10000000010100000100011 8"
b10000000010100000100011 a"
0]"
b111 1
b111 A"
b1111 0
b1111 B"
b100 &
b100 n
b100 b"
b1000 6
b1000 s
b1000 I"
b1000 J"
b1101100 P
b1101100 z
b1000 F
b1000 {
b1000 F"
b1000 }
b1100 7
b1100 ("
b1100 U"
b1100 ;
b1100 )"
b1100 R"
b11 9
b11 T"
b11 ["
b1110000 "
b1110000 q
b1110000 7"
b1110000 `"
0Q
b111 L
b111 ~
b111 <"
b100 K
b100 !"
b100 ="
b100 2
b100 |
b100 f
b100 u
b100 2"
b1000 b
b1000 5"
b1000 H"
b1000 e
b1000 t
b1000 3"
b1101000 m
b1101000 y
b1101000 ."
b1100000010011000100011 \
b1100000010011000100011 :"
b1100000010011000100011 K"
b1101100 ]
b1101100 -"
b1101100 9"
b11011 -
1'
#375000
0'
